Place,Name,Team,BodyweightKg,Best3BenchKg,Division,Sex,WeightClassKg,TotalKg,Equipment,Event,BirthDate
1,Mario Michael Langva Selberg,Sundsvalls AK,58.50,90.00,Sub-Juniors,M,59,90.0,Raw,B,
1,Carl Widenfalk,Måndagsklubben IF,65.05,100.00,Sub-Juniors,M,66,100.0,Raw,B,
1,Oscar Wille,Lunds TK,72.20,127.50,Sub-Juniors,M,74,127.5,Raw,B,
2,Ahmad Ghanem,Kristinehamns Atlet och BK,70.40,117.50,Sub-Juniors,M,74,117.5,Raw,B,
3,Valdemar Kesa,Stockholms AK,67.95,112.50,Sub-Juniors,M,74,112.5,Raw,B,
4,Pontus Perers,Måndagsklubben IF,72.70,107.50,Sub-Juniors,M,74,107.5,Raw,B,
5,Noah von Sicar,Måndagsklubben IF,71.55,100.00,Sub-Juniors,M,74,100.0,Raw,B,
6,Ossian Löfdahl,TK Trossö,68.05,97.50,Sub-Juniors,M,74,97.5,Raw,B,
7,Alvin Fries,TK Trossö,72.20,97.50,Sub-Juniors,M,74,97.5,Raw,B,
1,Hampus Jonsson,Växjö AK,82.15,178.00,Sub-Juniors,M,83,178.0,Raw,B,
2,Edvin Borgström,Sundsvalls AK,82.80,130.00,Sub-Juniors,M,83,130.0,Raw,B,
3,Gabriel Andersson,Örebro KK,79.80,127.50,Sub-Juniors,M,83,127.5,Raw,B,
4,Simon Nilssen,Örebro KK,80.35,112.50,Sub-Juniors,M,83,112.5,Raw,B,
5,Noah Kristofferson Nilsson,Växjö AK,79.50,110.00,Sub-Juniors,M,83,110.0,Raw,B,
6,Alexander Unge,Västerås Kraftsportsklubb,81.80,110.00,Sub-Juniors,M,83,110.0,Raw,B,
7,Mio Gustafsson,Karlstads AK,75.35,102.50,Sub-Juniors,M,83,102.5,Raw,B,
1,Alex Hertler,Lunds TK,90.00,135.00,Sub-Juniors,M,93,135.0,Raw,B,
2,Linus Sten,Nässjö AMK,92.90,135.00,Sub-Juniors,M,93,135.0,Raw,B,
3,Albin Jonson,Borås AK,91.85,127.50,Sub-Juniors,M,93,127.5,Raw,B,
4,Jesper Nordmark,Öjeby AK,91.80,117.50,Sub-Juniors,M,93,117.5,Raw,B,
1,Albin Nilsson,Lunds TK,101.15,160.00,Sub-Juniors,M,105,160.0,Raw,B,
2,Hampus Karlsson,Nässjö AMK,101.10,140.00,Sub-Juniors,M,105,140.0,Raw,B,
3,Vilmer Andersson,Öjeby AK,102.55,140.00,Sub-Juniors,M,105,140.0,Raw,B,
4,Simon Blom,Södertälje AK,101.20,135.00,Sub-Juniors,M,105,135.0,Raw,B,
5,Isak Lindquist,Täby AK,103.80,135.00,Sub-Juniors,M,105,135.0,Raw,B,
6,Manfred Hedström Libeck,Örebro KK,100.80,122.50,Sub-Juniors,M,105,122.5,Raw,B,
1,Dante Norling,Huddinge SK,117.80,140.00,Sub-Juniors,M,120,140.0,Raw,B,
1,Lucas Cordova Pomo,Become an Athlete Styrkesällskap,134.20,170.00,Sub-Juniors,M,120+,170.0,Raw,B,
1,Emil Lundgren,Täby AK,73.60,180.00,Juniors,M,74,180.0,Raw,B,
2,Edvin Öhrström,Örebro KK,69.80,145.00,Juniors,M,74,145.0,Raw,B,
3,Aron Lindman,TK Trossö,72.65,140.00,Juniors,M,74,140.0,Raw,B,
4,Daniel Arvidsson,Kungälvs Atletklubb,74.00,135.00,Juniors,M,74,135.0,Raw,B,
1,Rafael Eriksson Ghazinour,Lunds TK,82.35,157.50,Juniors,M,83,157.5,Raw,B,
2,Victor Castenson,Nässjö AMK,82.30,140.00,Juniors,M,83,140.0,Raw,B,
3,Melwin Elingby,Örebro KK,82.10,127.50,Juniors,M,83,127.5,Raw,B,
1,Jonathan Henningsson,Borås AK,88.00,202.50,Juniors,M,93,202.5,Raw,B,
2,Axel Samuelsson,TK Trossö,89.15,195.00,Juniors,M,93,195.0,Raw,B,
3,Yulong Li,Vedum AIS,92.50,187.50,Juniors,M,93,187.5,Raw,B,
4,Maxim Uebel,Stockholms AK,91.40,182.50,Juniors,M,93,182.5,Raw,B,
5,Emil Jörgensen,Jönköping SK,92.35,175.00,Juniors,M,93,175.0,Raw,B,
6,Niklas Håkansson,Lunds TK,92.35,165.00,Juniors,M,93,165.0,Raw,B,
7,Valdemar Alsin,Göteborgs KK,92.55,160.00,Juniors,M,93,160.0,Raw,B,
8,David Warnquist,Västra AK,92.60,157.50,Juniors,M,93,157.5,Raw,B,
1,Eric Vedin,Sundbybergs TK,104.10,182.50,Juniors,M,105,182.5,Raw,B,
2,David Lagerqvist,Västra AK,100.70,177.50,Juniors,M,105,177.5,Raw,B,
3,Sixten Åborg,Stockholms AK,100.80,175.00,Juniors,M,105,175.0,Raw,B,
4,Christoffer Lindh,Södertälje AK,103.40,175.00,Juniors,M,105,175.0,Raw,B,
5,Hannes Aldebert,Växjö AK,103.80,162.50,Juniors,M,105,162.5,Raw,B,
1,Alex Thübeck,Lunds TK,115.10,195.00,Juniors,M,120,195.0,Raw,B,
1,Tyra Hermander,Täby AK,55.00,65.00,Sub-Juniors,F,57,65.0,Raw,B,
1,Emilia Lindh,Upsala TK,61.50,80.00,Sub-Juniors,F,63,80.0,Raw,B,
2,Hilda Contreras Tittonen,Måndagsklubben IF,61.00,77.50,Sub-Juniors,F,63,77.5,Raw,B,
3,Clara Magnusson,Stockholms AK,62.35,65.00,Sub-Juniors,F,63,65.0,Raw,B,
4,Idun Skog,Måndagsklubben IF,60.15,62.50,Sub-Juniors,F,63,62.5,Raw,B,
1,Hilma Westerberg,Stockholms AK,68.15,110.00,Sub-Juniors,F,69,110.0,Raw,B,
1,Freja Bengtsson,Täby AK,73.60,87.50,Sub-Juniors,F,76,87.5,Raw,B,
1,Agnes Skoglund,Måndagsklubben IF,93.90,65.00,Sub-Juniors,F,84+,65.0,Raw,B,
1,Sara Sandberg,Örebro KK,56.00,45.00,Juniors,F,57,45.0,Raw,B,
1,Astrid Edvardsson,Sommarhemmets Kraftsport,62.45,90.00,Juniors,F,63,90.0,Raw,B,
2,Julia Almström,Göteborgs SK,60.95,72.50,Juniors,F,63,72.5,Raw,B,
1,Ellen B. Åkesson,Linköpings AK,65.55,95.00,Juniors,F,69,95.0,Raw,B,
2,Sandra Nilsson,Umeå Power,68.90,90.00,Juniors,F,69,90.0,Raw,B,
3,Hanna Ekelund,Lunds TK,66.20,80.00,Juniors,F,69,80.0,Raw,B,
4,Frida Pettersson,Sundsvalls AK,66.80,62.50,Juniors,F,69,62.5,Raw,B,
1,Jennifer Ljungberg,Växjö AK,72.65,110.00,Juniors,F,76,110.0,Raw,B,
2,Klara Söderberg,Falköpings TK,75.75,102.50,Juniors,F,76,102.5,Raw,B,
3,Sabina Strandberg,ASK Eskilstuna,73.15,95.00,Juniors,F,76,95.0,Raw,B,
4,Mika Landelius,Sundbybergs TK,71.40,77.50,Juniors,F,76,77.5,Raw,B,
5,Lovisa Isberg,Stockholms AK,75.60,62.50,Juniors,F,76,62.5,Raw,B,
1,Greta Sandström,Gävle KK,82.40,102.50,Juniors,F,84,102.5,Raw,B,
2,Nadja Danielsson Heikki,Kiruna AK,82.40,95.00,Juniors,F,84,95.0,Raw,B,
3,Emma Sandén,Örebro KK,77.05,87.50,Juniors,F,84,87.5,Raw,B,
