Division,WeightClassKg,Place,Name,Team,BodyweightKg,Best3SquatKg,Best3BenchKg,Best3DeadliftKg,TotalKg,Equipment,Event,Sex
Boys,55.79,1,Haif Martinez,Lewisville The Colony,51.85,174.63,95.25,181.44,451.32,Single-ply,SBD,M
Boys,51.71,2,Gerald Van Ess,McKinney North,51.44,122.47,56.7,127.01,306.17,Single-ply,SBD,M
Boys,51.71,3,Robert Parra,Carrollton Creekview,50.8,106.59,52.16,133.81,292.57,Single-ply,SBD,M
Boys,51.71,4,Bailey Forst,Frisco Heritage,47.9,97.52,49.9,99.79,247.21,Single-ply,SBD,M
Boys,51.71,5,Michael Aguayo,Dallas Spruce,48.35,61.23,52.16,99.79,213.19,Single-ply,SBD,M
Boys,51.71,6,Cole Younkers,Pilot Point,51.71,77.11,54.43,79.38,210.92,Single-ply,SBD,M
Boys,59.87,1,Demitri Sommer,Lewisville The Colony,55.88,179.17,90.72,190.51,460.4,Single-ply,SBD,M
Boys,55.79,2,Toni Ogunsola,Frisco,55.16,170.1,88.45,170.1,428.64,Single-ply,SBD,M
Boys,55.79,3,Brandon Thomas,McKinney North,54.7,158.76,70.31,174.63,403.7,Single-ply,SBD,M
Boys,55.79,4,Chris Alcantar,Carrollton Creekview,55.79,136.08,90.72,165.56,392.36,Single-ply,SBD,M
Boys,55.79,5,Michael Robason,Frisco Wakeland,55.79,161.03,65.77,140.61,367.41,Single-ply,SBD,M
Boys,55.79,6,Andrew Wilson #8,Frisco Wakeland,55.79,129.27,74.84,136.08,340.19,Single-ply,SBD,M
Boys,55.79,7,Kolby Dodson,Frisco Centennial,53.16,95.25,56.7,124.74,276.69,Single-ply,SBD,M
Boys,55.79,8,Nick Barlis,Frisco Centennial,53.43,95.25,56.7,124.74,276.69,Single-ply,SBD,M
Boys,55.79,DQ,Tyler Johnson,Richardson Berkner,53.98,124.74,,,,Single-ply,SBD,M
Boys,59.87,1,Aaron Pomerantz,Lewisville Marcus,59.6,195.04,99.79,185.97,480.81,Single-ply,SBD,M
Boys,59.87,2,Brandon Lewellan,Frisco Wakeland,59.87,149.69,68.04,158.76,376.48,Single-ply,SBD,M
Boys,59.87,3,Antonio Martinez,Dallas Jesuit,59.87,124.74,79.38,142.88,347,Single-ply,SBD,M
Boys,59.87,4,Carson Keller,McKinney North,57.42,104.33,54.43,115.67,274.42,Single-ply,SBD,M
Boys,59.87,DQ,Alex Silva,Bishop Lynch,59.87,142.88,,,,Single-ply,SBD,M
Boys,67.13,1,Stefan Sommer,Lewisville The Colony,65.68,213.19,120.2,231.33,564.72,Single-ply,SBD,M
Boys,67.13,2,Pat White,Lewisville The Colony,66.77,204.12,124.74,226.8,555.65,Single-ply,SBD,M
Boys,67.13,3,Nick Baril,Frisco Centennial,64.95,176.9,117.93,163.29,458.13,Single-ply,SBD,M
Boys,67.13,4,Brady Adams,Frisco Wakeland,65.95,176.9,97.52,156.49,430.91,Single-ply,SBD,M
Boys,67.13,5,Isiah Smith,Garland Sachse,67.04,156.49,104.33,170.1,430.91,Single-ply,SBD,M
Boys,67.13,6,Stephon Brooks,Lewisville The Colony,64.59,154.22,88.45,179.17,421.84,Single-ply,SBD,M
Boys,67.13,7,Chris Crisby,Garland Sachse,63.14,142.88,92.99,156.49,392.36,Single-ply,SBD,M
Boys,67.13,8,Austin Fugina,Frisco Centennial,63.23,147.42,77.11,147.42,371.95,Single-ply,SBD,M
Boys,67.13,9,Chris Zapata,Carrollton Turner,65.95,122.47,74.84,156.49,353.8,Single-ply,SBD,M
Boys,67.13,10,Jonathan Johnson,Dallas Spruce,62.41,113.4,97.52,138.35,349.27,Single-ply,SBD,M
Boys,67.13,11,Jared Bowker,Frisco Centennial,66.5,113.4,74.84,124.74,312.98,Single-ply,SBD,M
Boys,67.13,12,Blake Weaver,Frisco Heritage,63.68,88.45,61.23,117.93,267.62,Single-ply,SBD,M
Boys,67.13,DQ,Lejohnathan Fulton,Richardson Berkner,63.23,,,,,Single-ply,SBD,M
Boys,74.84,1,Tarik Crear,Cedar Hill,74.84,217.72,115.67,208.65,542.04,Single-ply,SBD,M
Boys,74.84,2,Royce Richichi,Lewisville The Colony,73.48,222.26,108.86,208.65,539.77,Single-ply,SBD,M
Boys,74.84,3,Frank Perdomo,Lewisville The Colony,74.25,197.31,106.59,229.06,532.97,Single-ply,SBD,M
Boys,74.84,4,Kionte Sheffield,Garland Sachse,71.58,204.12,120.2,206.38,530.7,Single-ply,SBD,M
Boys,74.84,5,Dylan Ward,Lewisville Marcus,74.3,183.7,136.08,195.04,514.83,Single-ply,SBD,M
Boys,74.84,6,Mason Pierce,Frisco Centennial,73.66,206.38,120.2,170.1,496.68,Single-ply,SBD,M
Boys,74.84,7,Alex Krakosky,Bishop Lynch,74.84,208.65,90.72,181.44,480.81,Single-ply,SBD,M
Boys,74.84,8,DraShawn Frazier,Cedar Hill,73.03,176.9,86.18,206.38,469.47,Single-ply,SBD,M
Boys,74.84,9,Trevor Wilson,Frisco Centennial,73.12,181.44,104.33,172.37,458.13,Single-ply,SBD,M
Boys,74.84,10,Jarrett Wilson,Pilot Point,72.48,181.44,131.54,138.35,451.32,Single-ply,SBD,M
Boys,74.84,11,De'Amonte Miles,Dallas Spruce,73.21,142.88,102.06,158.76,403.7,Single-ply,SBD,M
Boys,74.84,12,Shavaughnte Hunter,Garland Sachse,73.75,145.15,115.67,136.08,396.89,Single-ply,SBD,M
Boys,74.84,13,Jamie Miller #3,Little Elm,72.57,145.15,90.72,154.22,390.09,Single-ply,SBD,M
Boys,74.84,14,Eric Rosales,Carrollton Turner,73.57,149.69,72.57,163.29,385.55,Single-ply,SBD,M
Boys,74.84,15,Nic Hintz,Frisco Heritage,74.84,142.88,90.72,149.69,383.29,Single-ply,SBD,M
Boys,74.84,16,Chris Charles,Garland Sachse,67.68,145.15,77.11,149.69,371.95,Single-ply,SBD,M
Boys,74.84,17,Reed Williams,Frisco Heritage,71.21,129.27,68.04,154.22,351.53,Single-ply,SBD,M
Boys,74.84,18,Samira Kuna,Richardson Berkner,74.03,120.2,83.91,147.42,351.53,Single-ply,SBD,M
Boys,74.84,19,Jeff Hodgekiss,Frisco Centennial,70.94,102.06,63.5,120.2,285.76,Single-ply,SBD,M
Boys,74.84,20,Michael Carpin,Frisco Heritage,73.03,99.79,70.31,115.67,285.76,Single-ply,SBD,M
Boys,74.84,21,Jake LoGrasso,Frisco Heritage,69.94,90.72,70.31,106.59,267.62,Single-ply,SBD,M
Boys,74.84,22,Bryan Forst,Frisco Heritage,69.13,90.72,52.16,113.4,256.28,Single-ply,SBD,M
Boys,74.84,DQ,Hayden Pierce,Frisco Heritage,73.3,136.08,81.65,,,Single-ply,SBD,M
Boys,82.1,1,Collin Charles,Frisco Heritage,80.1,219.99,136.08,260.82,616.89,Single-ply,SBD,M
Boys,82.1,2,Austin Arnold,Denison,82.1,217.72,151.95,233.6,603.28,Single-ply,SBD,M
Boys,82.1,3,Court Prescott,Lewisville Marcus,80.74,204.12,147.42,217.72,569.26,Single-ply,SBD,M
Boys,82.1,4,Jerry Burris,Cedar Hill,81.28,231.33,99.79,190.51,521.63,Single-ply,SBD,M
Boys,82.1,5,Colton Hensley,Denison,78.47,181.44,108.86,217.72,508.02,Single-ply,SBD,M
Boys,82.1,6,David Portillo,Carrollton Turner,82.01,183.7,131.54,190.51,505.76,Single-ply,SBD,M
Boys,82.1,7,Triston Robertson,Richardson Berkner,81.28,165.56,106.59,201.85,474,Single-ply,SBD,M
Boys,82.1,8,Keith Ngondo,Little Elm,82.1,183.7,83.91,174.63,442.25,Single-ply,SBD,M
Boys,82.1,9,Robert Merryfield,Frisco Heritage,78.56,158.76,92.99,181.44,433.18,Single-ply,SBD,M
Boys,82.1,10,Rickey Davis,Lewisville The Colony,79.47,172.37,86.18,163.29,421.84,Single-ply,SBD,M
Boys,82.1,11,Paul Scott,Pilot Point,78.93,149.69,104.33,147.42,401.43,Single-ply,SBD,M
Boys,82.1,12,Jacob Gray,Frisco Heritage,81.37,124.74,79.38,147.42,351.53,Single-ply,SBD,M
Boys,89.81,1,Alex Olson,Lewisville Marcus,89.09,254.01,140.61,235.87,630.49,Single-ply,SBD,M
Boys,89.81,2,Mike Denton,Lewisville The Colony,88.81,258.55,115.67,242.67,616.89,Single-ply,SBD,M
Boys,89.81,3,Tony Lareanas,Lewisville Marcus,82.64,233.6,147.42,210.92,591.94,Single-ply,SBD,M
Boys,89.81,4,Billy Cole,Garland Sachse,87.27,224.53,147.42,217.72,589.67,Single-ply,SBD,M
Boys,89.81,5,Keavin Turner,Cedar Hill,89.81,244.94,113.4,213.19,571.53,Single-ply,SBD,M
Boys,89.81,6,Isaiah Lewis,Cedar Hill,88,226.8,122.47,208.65,557.92,Single-ply,SBD,M
Boys,89.81,7,JD Clark #2,Lewisville The Colony,89.27,192.78,127.01,219.99,539.77,Single-ply,SBD,M
Boys,89.81,8,Jack Flowers,Frisco Wakeland,89.54,215.46,115.67,195.04,526.17,Single-ply,SBD,M
Boys,89.81,9,Patrick Hernandez,Midlothian,88.27,188.24,136.08,192.78,517.1,Single-ply,SBD,M
Boys,89.81,10,Marcus Sierra,Richardson Berkner,84.55,197.31,106.59,195.04,498.95,Single-ply,SBD,M
Boys,89.81,11,Kyle Ko,Lewisville Marcus,89.81,204.12,120.2,172.37,496.68,Single-ply,SBD,M
Boys,89.81,12,Chris Henricks,Frisco Wakeland,88.09,181.44,97.52,192.78,471.74,Single-ply,SBD,M
Boys,89.81,13,Patrick Cooper,Dallas Spruce,83.1,172.37,113.4,181.44,467.2,Single-ply,SBD,M
Boys,89.81,14,Kevin Kanzaki,Argyle,83.37,161.03,79.38,181.44,421.84,Single-ply,SBD,M
Boys,89.81,15,Oscar Chicas,Richardson Berkner,86.55,158.76,74.84,170.1,403.7,Single-ply,SBD,M
Boys,89.81,16,Alex Gibbs,Pilot Point,84.91,145.15,83.91,158.76,387.82,Single-ply,SBD,M
Boys,89.81,17,Jacob Livingston,Frisco Centennial,85.64,124.74,72.57,108.86,306.17,Single-ply,SBD,M
Boys,89.81,DQ,Nick Sepper,Frisco Wakeland,89.81,235.87,115.67,,,Single-ply,SBD,M
Boys,99.79,1,Axel DeLeon,Little Elm,99.52,278.96,145.15,265.35,689.46,Single-ply,SBD,M
Boys,99.79,2,Isaiah Hinton,Lewisville The Colony,99.34,265.35,156.49,249.48,671.32,Single-ply,SBD,M
Boys,99.79,3,Kamari Burnett,Frisco Centennial,98.61,249.48,147.42,215.46,612.35,Single-ply,SBD,M
Boys,99.79,4,Tony Dwyer,Bishop Lynch,96.71,226.8,124.74,235.87,587.4,Single-ply,SBD,M
Boys,99.79,5,Clay Eppler,Denison,98.61,208.65,145.15,219.99,573.79,Single-ply,SBD,M
Boys,99.79,6,Michael Rinehart,Bishop Lynch,97.34,215.46,106.59,226.8,548.85,Single-ply,SBD,M
Boys,99.79,7,Emmit Morgan,Frisco Centennial,96.34,213.19,138.35,192.78,544.31,Single-ply,SBD,M
Boys,99.79,8,Josh Heath,Denison,98.43,215.46,124.74,204.12,544.31,Single-ply,SBD,M
Boys,99.79,9,Jon Molina,Bishop Lynch,97.52,249.48,97.52,190.51,537.51,Single-ply,SBD,M
Boys,99.79,10,Logan Teel,McKinney North,93.44,210.92,102.06,208.65,521.63,Single-ply,SBD,M
Boys,99.79,11,Camron Davis,Bishop Lynch,98.97,204.12,113.4,204.12,521.63,Single-ply,SBD,M
Boys,99.79,12,Will Allen,Pilot Point,96.62,192.78,127.01,195.04,514.83,Single-ply,SBD,M
Boys,99.79,13,Hunter Stewart,Argyle,93.8,190.51,102.06,206.38,498.95,Single-ply,SBD,M
Boys,99.79,14,Joyce Reed,Frisco Centennial,98.97,183.7,117.93,195.04,496.68,Single-ply,SBD,M
Boys,99.79,15,Dakota Lincoln,Frisco Wakeland,96.43,192.78,120.2,167.83,480.81,Single-ply,SBD,M
Boys,99.79,16,Fernando Perez,Carrollton Turner,97.98,199.58,88.45,154.22,442.25,Single-ply,SBD,M
Boys,99.79,17,Luius Triano,Carrollton Turner,97.7,172.37,95.25,167.83,435.45,Single-ply,SBD,M
Boys,99.79,18,Rodney Darre,Richardson Berkner,96.07,149.69,77.11,158.76,385.55,Single-ply,SBD,M
Boys,99.79,19,Ben Barber,Richardson Berkner,99.34,163.29,99.79,113.4,376.48,Single-ply,SBD,M
Boys,99.79,20,Dee Hill,Richardson Berkner,94.35,131.54,70.31,142.88,344.73,Single-ply,SBD,M
Boys,99.79,21,Collin Yang,Frisco Heritage,94.98,127.01,74.84,136.08,337.93,Single-ply,SBD,M
Boys,109.77,1,Andrew Abamu,Cedar Hill,103.87,254.01,122.47,258.55,635.03,Single-ply,SBD,M
Boys,109.77,2,Zack McCoy,Little Elm,107.77,254.01,158.76,213.19,625.96,Single-ply,SBD,M
Boys,109.77,3,Austin Apari,Lewisville The Colony,108.14,235.87,136.08,226.8,598.74,Single-ply,SBD,M
Boys,109.77,4,Jayden Stumbaugh,Denison,108.41,233.6,142.88,219.99,596.47,Single-ply,SBD,M
Boys,124.74,5,Marvin Bookman,Cedar Hill,109.86,231.33,127.01,231.33,589.67,Single-ply,SBD,M
Boys,109.77,6,Chris O'Toole,Little Elm,100.88,201.85,131.54,201.85,535.24,Single-ply,SBD,M
Boys,109.77,7,Bijzon Brown,Lewisville The Colony,105.51,206.38,129.27,199.58,535.24,Single-ply,SBD,M
Boys,109.77,8,Michael Ivie,Lewisville The Colony,108.14,185.97,97.52,165.56,449.06,Single-ply,SBD,M
Boys,109.77,9,Tyler McDonald,Frisco Centennial,104.42,181.44,99.79,165.56,446.79,Single-ply,SBD,M
Boys,109.77,10,Jonathan Delvalle,Carrollton Turner,104.96,190.51,81.65,154.22,426.38,Single-ply,SBD,M
Boys,109.77,11,David Fridae,Carrollton Turner,109.04,176.9,70.31,145.15,392.36,Single-ply,SBD,M
Boys,109.77,13,Jeff Forst,Frisco Heritage,109.77,170.1,95.25,181.44,446.79,Single-ply,SBD,M
Boys,109.77,DQ,Tim Womble,Frisco Heritage,106.78,113.4,97.52,,,Single-ply,SBD,M
Boys,109.77,DQ,Ethan Young,Bishop Lynch,105.69,249.48,,,,Single-ply,SBD,M
Boys,124.74,1,Jerome Daniels,Little Elm,124.74,278.96,172.37,254.01,705.34,Single-ply,SBD,M
Boys,124.74,2,Jaleil Davis,Cedar Hill,123.1,260.82,165.56,213.19,639.57,Single-ply,SBD,M
Boys,124.74,2,Daniel Kim,Lewisville The Colony,124.56,249.48,140.61,213.19,603.28,Single-ply,SBD,M
Boys,124.74,3,Abran Oakes,Garland Sachse,123.83,249.48,142.88,222.26,614.62,Single-ply,SBD,M
Boys,124.74,4,Damarcus Henderson,Lewisville The Colony,123.29,226.8,138.35,231.33,596.47,Single-ply,SBD,M
Boys,124.74,5,Dominic Cabrera,Frisco Wakeland,123.47,240.4,122.47,217.72,580.6,Single-ply,SBD,M
Boys,124.74,6,Justin Bigelow,Denison,117.93,233.6,129.27,213.19,576.06,Single-ply,SBD,M
Boys,124.74,7,Matt Poursoltani,Pilot Point,121.47,117.93,249.48,204.12,571.53,Single-ply,SBD,M
Boys,124.74,8,Mike Castle,Lewisville Marcus,121.11,217.72,158.76,181.44,557.92,Single-ply,SBD,M
Boys,124.74,9,Shane Smart,Lewisville Marcus,112.85,213.19,140.61,199.58,553.38,Single-ply,SBD,M
Boys,124.74,10,Jay Goodson,Richardson Berkner,118.84,188.24,102.06,204.12,494.42,Single-ply,SBD,M
Boys,124.74,11,Jose Escudra,Bishop Lynch,116.94,206.38,111.13,170.1,487.61,Single-ply,SBD,M
Boys,124.74,12,Alex Ellis #1,Garland Sachse,112.13,183.7,102.06,172.37,458.13,Single-ply,SBD,M
Boys,124.74,14,Serafin Garcia,Carrollton Turner,117.03,158.76,79.38,158.76,396.89,Single-ply,SBD,M
Boys,124.74+,1,Kevin Blessing,Lewisville Marcus,132.9,254.01,142.88,222.26,619.15,Single-ply,SBD,M
Boys,124.74+,3,Trey Marks,Little Elm,125.01,226.8,136.08,199.58,562.45,Single-ply,SBD,M
Boys,124.74+,4,Willi Jones,Cedar Hill,133.72,226.8,154.22,170.1,551.11,Single-ply,SBD,M
Boys,124.74+,5,Chris Bennett,Lewisville The Colony,129.73,181.44,106.59,156.49,444.52,Single-ply,SBD,M
Boys,124.74+,6,Jarrett Barnard,Lewisville The Colony,130.09,158.76,102.06,154.22,415.04,Single-ply,SBD,M
Boys,124.74+,7,Rigoberto Benavidez,Pilot Point,142.7,136.08,113.4,147.42,396.89,Single-ply,SBD,M
Boys,124.74+,8,Chris Hughes #5,Richardson Berkner,130.36,136.08,95.25,145.15,376.48,Single-ply,SBD,M
