Division,WeightClassKg,Place,Name,Team,BodyweightKg,Best3SquatKg,Best3BenchKg,Best3DeadliftKg,TotalKg,Equipment,Event,Sex
Boys,51.71,1,Jarred Curtis,Post,50.98,129.27,79.38,133.81,342.46,Single-ply,SBD,M
Boys,51.71,2,Jeremiah Ramirez,Levelland,46.72,113.4,65.77,149.69,328.85,Single-ply,SBD,M
Boys,51.71,3,Evan Paez,Muleshoe,49.62,99.79,58.97,129.27,288.03,Single-ply,SBD,M
Boys,51.71,4,Ignacio Romero,Plainview,45.72,115.67,54.43,108.86,278.96,Single-ply,SBD,M
Boys,51.71,5,Manuel Reyna,Anton,50.98,90.72,45.36,108.86,244.94,Single-ply,SBD,M
Boys,51.71,6,Damond Humiston,Snyder,51.62,102.06,49.9,77.11,229.06,Single-ply,SBD,M
Boys,51.71,7,Bj Ambriez,Slaton,50.53,54.43,36.29,77.11,167.83,Single-ply,SBD,M
Boys,59.87,1,Anthony Washington,Plainview,55.88,147.42,74.84,151.95,374.21,Single-ply,SBD,M
Boys,55.79,2,Zachary Salazar,Lamesa,55.61,122.47,86.18,140.61,349.27,Single-ply,SBD,M
Boys,55.79,3,Mark Marquez,Dimmitt,55.79,127.01,65.77,131.54,324.32,Single-ply,SBD,M
Boys,59.87,4,Hayden Belongia,Post,55.88,113.4,79.38,129.27,322.05,Single-ply,SBD,M
Boys,55.79,5,Efren Miranda,Levelland,53.71,122.47,56.7,136.08,315.25,Single-ply,SBD,M
Boys,59.87,6,Diego Rodriguez,Dimmitt,55.88,115.67,65.77,127.01,308.44,Single-ply,SBD,M
Boys,55.79,7,Matthew Gallegos,Plainview,54.88,106.59,70.31,127.01,303.91,Single-ply,SBD,M
Boys,55.79,8,Ricardo Davila,Anton,55.16,102.06,58.97,127.01,288.03,Single-ply,SBD,M
Boys,55.79,DQ,Dominic Longoria,Levelland,55.79,,,,,Single-ply,SBD,M
Boys,59.87,1,Cambry Gilbert,Post,59.78,161.03,92.99,183.7,437.72,Single-ply,SBD,M
Boys,59.87,2,Danny Gallardo,Plainview,59.78,147.42,86.18,167.83,401.43,Single-ply,SBD,M
Boys,59.87,3,Elijah Zambrano,Plainview,56.7,145.15,72.57,133.81,351.53,Single-ply,SBD,M
Boys,59.87,4,Edgar Sanchez,Dimmitt,59.69,122.47,83.91,138.35,344.73,Single-ply,SBD,M
Boys,59.87,5,Kobe Young,Wolfforth Frenship,58.6,129.27,70.31,136.08,335.66,Single-ply,SBD,M
Boys,59.87,6,Antonio Alvarado,Levelland,56.7,115.67,77.11,127.01,319.78,Single-ply,SBD,M
Boys,67.13,7,Campbell Cowen,Lamesa,59.96,102.06,52.16,106.59,260.82,Single-ply,SBD,M
Boys,59.87,8,Chase Raney,Lamesa,59.87,88.45,52.16,108.86,249.48,Single-ply,SBD,M
Boys,67.13,DQ,Emilio Miranda,Levelland,60.1,,,,,Single-ply,SBD,M
Boys,59.87,DQ,Frank Arredondo,Levelland,59.87,,,,,Single-ply,SBD,M
Boys,59.87,DQ,Zack Sanchez,Levelland,58.33,115.67,83.91,,,Single-ply,SBD,M
Boys,67.13,1,Eli Rodriguez,Seagraves,66.86,199.58,102.06,199.58,501.22,Single-ply,SBD,M
Boys,67.13,2,Jordan Davis #4,Snyder,65.86,174.63,97.52,204.12,476.27,Single-ply,SBD,M
Boys,67.13,3,DJ Brown,Post,66.77,145.15,108.86,199.58,453.59,Single-ply,SBD,M
Boys,67.13,4,Zane Ponder,Plainview,61.69,167.83,92.99,172.37,433.18,Single-ply,SBD,M
Boys,67.13,5,Zack Rosas,Plainview,66.5,149.69,90.72,174.63,415.04,Single-ply,SBD,M
Boys,67.13,6,Cristian Paez,Muleshoe,62.69,142.88,88.45,174.63,405.97,Single-ply,SBD,M
Boys,67.13,7,Alejo Rodriguez,Post,65.86,149.69,88.45,165.56,403.7,Single-ply,SBD,M
Boys,74.84,8,Isaah Jones,Post,67.31,142.88,88.45,154.22,385.55,Single-ply,SBD,M
Boys,67.13,9,Brendan Garza,Snyder,66.5,136.08,88.45,140.61,365.14,Single-ply,SBD,M
Boys,67.13,10,Sammy Soto,Post,65.86,133.81,83.91,140.61,358.34,Single-ply,SBD,M
Boys,67.13,11,Alex Machado,Dimmitt,63.96,122.47,83.91,145.15,351.53,Single-ply,SBD,M
Boys,67.13,12,Patrick Fleming,Anton,66.5,124.74,72.57,142.88,340.19,Single-ply,SBD,M
Boys,67.13,13,Raul Trevino,Muleshoe,66.32,124.74,72.57,138.35,335.66,Single-ply,SBD,M
Boys,67.13,14,Estevan Gonzales,Dimmitt,66.86,113.4,65.77,145.15,324.32,Single-ply,SBD,M
Boys,67.13,15,Robert Smith,Wolfforth Frenship,64.68,102.06,88.45,129.27,319.78,Single-ply,SBD,M
Boys,74.84,16,Fermin Medina,Dimmitt,67.22,117.93,72.57,113.4,303.91,Single-ply,SBD,M
Boys,67.13,17,Matt Mitchell #5,Wolfforth Frenship,61.14,97.52,68.04,133.81,299.37,Single-ply,SBD,M
Boys,67.13,18,Javier Alcorta,Slaton,63.59,113.4,68.04,95.25,276.69,Single-ply,SBD,M
Boys,67.13,19,Kyle Branson,Lamesa,61.96,86.18,58.97,115.67,260.82,Single-ply,SBD,M
Boys,67.13,DQ,Brian Amador,Lamesa,67.13,,,,,Single-ply,SBD,M
Boys,67.13,DQ,Brock Boozer,Dimmitt,67.13,,,,,Single-ply,SBD,M
Boys,67.13,DQ,Jace Wood,Anton,67.13,,,,,Single-ply,SBD,M
Boys,67.13,DQ,Zane Clark,Canyon,67.13,,,,,Single-ply,SBD,M
Boys,74.84,1,Elliot Hanna,Levelland,68.95,195.04,124.74,204.12,523.9,Single-ply,SBD,M
Boys,74.84,2,Paul Perez #3,Levelland,72.94,174.63,113.4,181.44,469.47,Single-ply,SBD,M
Boys,74.84,3,Steven Vallejo,Plainview,72.85,183.7,88.45,192.78,464.93,Single-ply,SBD,M
Boys,74.84,4,Jake Bramlet,Lockney,74.75,192.78,97.52,174.63,464.93,Single-ply,SBD,M
Boys,74.84,5,Blaine Reece,Post,68.49,183.7,95.25,156.49,435.45,Single-ply,SBD,M
Boys,74.84,6,Tyler Hastings,Levelland,72.76,174.63,106.59,154.22,435.45,Single-ply,SBD,M
Boys,74.84,7,Jake Samaneigo,Lamesa,69.94,167.83,108.86,156.49,433.18,Single-ply,SBD,M
Boys,74.84,8,Aj Reed,Post,68.76,170.1,86.18,167.83,424.11,Single-ply,SBD,M
Boys,74.84,9,Jose Juarez #4,Snyder,72.39,149.69,83.91,183.7,417.3,Single-ply,SBD,M
Boys,74.84,10,Pj Corona,Slaton,74.21,142.88,77.11,158.76,378.75,Single-ply,SBD,M
Boys,74.84,11,Nate Rosas,Muleshoe,71.12,140.61,77.11,158.76,376.48,Single-ply,SBD,M
Boys,74.84,12,Caleb Weatherred,Levelland,70.76,122.47,79.38,165.56,367.41,Single-ply,SBD,M
Boys,74.84,13,Dillon Hibbitts,Seagraves,73.03,131.54,72.57,163.29,367.41,Single-ply,SBD,M
Boys,74.84,14,Quince Workman,Wolfforth Frenship,70.49,108.86,77.11,161.03,347,Single-ply,SBD,M
Boys,74.84,15,Kevin Fehr,Wolfforth Frenship,73.94,113.4,72.57,147.42,333.39,Single-ply,SBD,M
Boys,74.84,16,Blaze Smith,Post,72.94,129.27,65.77,117.93,312.98,Single-ply,SBD,M
Boys,74.84,17,Dominik Hasley,Muleshoe,68.58,113.4,49.9,136.08,299.37,Single-ply,SBD,M
Boys,74.84,18,Josh Salazar,Levelland,68.95,122.47,56.7,113.4,292.57,Single-ply,SBD,M
Boys,74.84,19,Ty Hardrick,Anton,67.77,102.06,52.16,129.27,283.5,Single-ply,SBD,M
Boys,74.84,20,Jody Edwards,Wolfforth Frenship,71.12,83.91,56.7,129.27,269.89,Single-ply,SBD,M
Boys,74.84,21,Brogan Litche,Anton,74.03,104.33,45.36,108.86,258.55,Single-ply,SBD,M
Boys,74.84,DQ,Christian Lopez #6,Snyder,72.03,,,,,Single-ply,SBD,M
Boys,74.84,DQ,Blake Boren,Post,74.84,,,,,Single-ply,SBD,M
Boys,89.81,1,Domingo Saucedo,Plainview,82.28,226.8,158.76,238.14,623.69,Single-ply,SBD,M
Boys,82.1,2,Bailey Settle,Plainview,81.47,213.19,122.47,192.78,528.44,Single-ply,SBD,M
Boys,82.1,3,D'Vincent Allison,Snyder,80.38,197.31,117.93,190.51,505.76,Single-ply,SBD,M
Boys,82.1,4,Bryan Smith #5,Post,81.01,149.69,111.13,192.78,453.59,Single-ply,SBD,M
Boys,82.1,5,Michael Guerrero,Lockney,77.84,163.29,106.59,181.44,451.32,Single-ply,SBD,M
Boys,82.1,6,Josh Acevedo,Wolfforth Frenship,80.74,147.42,102.06,172.37,421.84,Single-ply,SBD,M
Boys,82.1,7,Jorge Martinez,Muleshoe,78.65,142.88,86.18,181.44,410.5,Single-ply,SBD,M
Boys,82.1,8,Zachary Salazar,Levelland,81.74,129.27,97.52,158.76,385.55,Single-ply,SBD,M
Boys,82.1,9,Roman Salazar,Lamesa,79.38,138.35,74.84,149.69,362.87,Single-ply,SBD,M
Boys,82.1,10,Tristan Fannon,Post,77.66,129.27,83.91,142.88,356.07,Single-ply,SBD,M
Boys,82.1,11,Quinten Johnson,Wolfforth Frenship,77.02,102.06,70.31,108.86,281.23,Single-ply,SBD,M
Boys,82.1,DQ,Jacob Terry,Slaton,77.66,154.22,,,,Single-ply,SBD,M
Boys,82.1,DQ,Colton Brown,Wolfforth Frenship,77.2,120.2,,,,Single-ply,SBD,M
Boys,82.1,DQ,Israel Perez,Dimmitt,81.83,,,,,Single-ply,SBD,M
Boys,82.1,DQ,Jesse Easley,Muleshoe,82.1,,,,,Single-ply,SBD,M
Boys,89.81,1,Trenton Jones,Plainview,86.36,217.72,140.61,204.12,562.45,Single-ply,SBD,M
Boys,89.81,2,Quenton Valentine,Plainview,88.9,215.46,127.01,188.24,530.7,Single-ply,SBD,M
Boys,89.81,3,Roy Flores,Levelland,87.82,199.58,120.2,204.12,523.9,Single-ply,SBD,M
Boys,89.81,4,Dalton Gray,Anton,87.82,195.04,108.86,217.72,521.63,Single-ply,SBD,M
Boys,99.79,5,Jayson Walden,Post,89.99,183.7,111.13,161.03,455.86,Single-ply,SBD,M
Boys,89.81,6,Kody Duncan,Levelland,83.46,167.83,106.59,179.17,453.59,Single-ply,SBD,M
Boys,89.81,7,Cody Crabb,Slaton,87.63,163.29,92.99,185.97,442.25,Single-ply,SBD,M
Boys,89.81,8,Marciel Salinas,Slaton,87.45,170.1,83.91,185.97,439.98,Single-ply,SBD,M
Boys,89.81,9,David Camargo,Slaton,89.81,163.29,92.99,179.17,435.45,Single-ply,SBD,M
Boys,89.81,10,Juan Ramirez,Wolfforth Frenship,83.46,138.35,92.99,165.56,396.89,Single-ply,SBD,M
Boys,89.81,11,Ethan Moseley,Wolfforth Frenship,85.46,136.08,79.38,161.03,376.48,Single-ply,SBD,M
Boys,89.81,12,Frank Richard,Wolfforth Frenship,85.91,124.74,70.31,156.49,351.53,Single-ply,SBD,M
Boys,89.81,13,Jordan Hernandez,Wolfforth Frenship,88.09,124.74,83.91,142.88,351.53,Single-ply,SBD,M
Boys,89.81,14,Caleb McDaniel,Wolfforth Frenship,82.74,127.01,81.65,136.08,344.73,Single-ply,SBD,M
Boys,89.81,DQ,Jordan Rinehart,Snyder,85.64,183.7,120.2,,,Single-ply,SBD,M
Boys,99.79,1,Paul Ochoa,Levelland,95.44,249.48,156.49,201.85,607.81,Single-ply,SBD,M
Boys,99.79,2,Brendan Voss,Plainview,90.45,222.26,131.54,226.8,580.6,Single-ply,SBD,M
Boys,99.79,3,Alex Ayala,Lamesa,97.16,199.58,147.42,197.31,544.31,Single-ply,SBD,M
Boys,109.77,4,Israel Rosalez,Seagraves,99.88,204.12,136.08,172.37,512.56,Single-ply,SBD,M
Boys,99.79,5,Carlos Martinez #21,Muleshoe,99.79,192.78,97.52,199.58,489.88,Single-ply,SBD,M
Boys,99.79,6,Tristan Hernandez,Dimmitt,94.08,185.97,104.33,188.24,478.54,Single-ply,SBD,M
Boys,99.79,7,Christian Rodriguez #8,Wolfforth Frenship,93.62,156.49,92.99,188.24,437.72,Single-ply,SBD,M
Boys,99.79,8,Sean Humphrey,Snyder,99.7,151.95,97.52,158.76,408.23,Single-ply,SBD,M
Boys,99.79,9,Eric Vela,Canyon,96.71,149.69,102.06,154.22,405.97,Single-ply,SBD,M
Boys,99.79,10,Matt Gauthier,Canyon,99.61,136.08,108.86,149.69,394.63,Single-ply,SBD,M
Boys,99.79,11,Gage Holmes,Wolfforth Frenship,97.34,127.01,65.77,170.1,362.87,Single-ply,SBD,M
Boys,99.79,12,Jacob Mannon,Wolfforth Frenship,91.63,124.74,79.38,147.42,351.53,Single-ply,SBD,M
Boys,99.79,13,Jared Felan,Wolfforth Frenship,96.16,124.74,65.77,142.88,333.39,Single-ply,SBD,M
Boys,99.79,DQ,Jonah McGuire,Snyder,99.06,79.38,47.63,,,Single-ply,SBD,M
Boys,99.79,DQ,Jesse Gomez,Canyon,99.79,,,,,Single-ply,SBD,M
Boys,99.79,DQ,Gavin Flores,Dimmitt,99.79,,,,,Single-ply,SBD,M
Boys,124.74,1,Moises Garcia,Plainview,109.86,256.28,145.15,249.48,650.91,Single-ply,SBD,M
Boys,109.77,2,Rolando Gutierrez,Seagraves,101.06,254.01,106.59,229.06,589.67,Single-ply,SBD,M
Boys,109.77,3,Matthew Cardenas,Wolfforth Frenship,105.23,215.46,129.27,217.72,562.45,Single-ply,SBD,M
Boys,109.77,4,Scott Martin,Dimmitt,107.14,217.72,117.93,226.8,562.45,Single-ply,SBD,M
Boys,109.77,5,Alex King,Levelland,101.7,206.38,115.67,226.8,548.85,Single-ply,SBD,M
Boys,109.77,6,Dillon DeLeon,Lockney,102.97,190.51,122.47,185.97,498.95,Single-ply,SBD,M
Boys,109.77,7,Kalob Brumley,Canyon,101.42,181.44,106.59,181.44,469.47,Single-ply,SBD,M
Boys,109.77,8,Alex Pena,Dimmitt,100.15,172.37,113.4,161.03,446.79,Single-ply,SBD,M
Boys,109.77,9,Skylar Tebo,Canyon,104.24,149.69,92.99,181.44,424.11,Single-ply,SBD,M
Boys,109.77,10,Austin Slayton,Canyon,100.7,145.15,102.06,165.56,412.77,Single-ply,SBD,M
Boys,109.77,DQ,Ryan Martinez,Snyder,109.77,,,,,Single-ply,SBD,M
Boys,124.74,1,Erik Mendez,Plainview,116.94,260.82,151.95,247.21,659.98,Single-ply,SBD,M
Boys,124.74,2,Chris Simmons,Levelland,123.83,229.06,145.15,222.26,596.47,Single-ply,SBD,M
Boys,124.74,3,Chris Thomas,Slaton,117.48,240.4,140.61,213.19,594.21,Single-ply,SBD,M
Boys,124.74,4,David Rodriguez,Muleshoe,111.22,215.46,136.08,217.72,569.26,Single-ply,SBD,M
Boys,124.74,5,Marquise Nelson,Wolfforth Frenship,122.74,226.8,117.93,199.58,544.31,Single-ply,SBD,M
Boys,124.74+,6,Aaron Steelman,Snyder,124.83,219.99,127.01,197.31,544.31,Single-ply,SBD,M
Boys,124.74,7,Tomas Vidales,Levelland,111.95,204.12,95.25,206.38,505.76,Single-ply,SBD,M
Boys,124.74,8,Nick Perez,Snyder,117.12,195.04,95.25,213.19,503.49,Single-ply,SBD,M
Boys,124.74,9,Jordan Russell,Muleshoe,119.98,172.37,97.52,204.12,474,Single-ply,SBD,M
Boys,124.74,10,Hagan Kelly,Plainview,112.04,174.63,127.01,170.1,471.74,Single-ply,SBD,M
Boys,124.74,11,Colton Smith #6,Post,116.3,124.74,102.06,183.7,410.5,Single-ply,SBD,M
Boys,124.74,12,Vincent Romero,Levelland,112.94,142.88,81.65,170.1,394.63,Single-ply,SBD,M
Boys,124.74,DQ,Trevor Vallejo,Canyon,124.74,,,,,Single-ply,SBD,M
Boys,124.74,DQ,Brenon Brunson,Snyder,124.74,,,,,Single-ply,SBD,M
Boys,124.74+,1,Jeremy Garza,Snyder,136.35,249.48,176.9,247.21,673.58,Single-ply,SBD,M
Boys,124.74+,2,Brandon Rowand,Levelland,146.96,249.48,131.54,208.65,589.67,Single-ply,SBD,M
Boys,124.74+,3,Dominick Puente,Levelland,139.8,233.6,145.15,204.12,582.87,Single-ply,SBD,M
Boys,124.74+,4,Vincent Mendoza,Wolfforth Frenship,125.28,254.01,117.93,201.85,573.79,Single-ply,SBD,M
Boys,124.74+,5,Santos Jackson,Dimmitt,145.33,235.87,122.47,215.46,573.79,Single-ply,SBD,M
Boys,124.74+,6,Rudy Jackson,Dimmitt,128.55,224.53,127.01,188.24,539.77,Single-ply,SBD,M
Boys,124.74+,7,Jayme Murdock,Slaton,182.8,172.37,127.01,195.04,494.42,Single-ply,SBD,M
Boys,124.74+,8,Alexander Dimba,Wolfforth Frenship,213.19,183.7,111.13,161.03,455.86,Single-ply,SBD,M
Boys,124.74+,9,Cody Amador,Lockney,181.35,161.03,122.47,136.08,419.57,Single-ply,SBD,M
Boys,124.74+,10,AJ Garcia,Slaton,162.3,142.88,102.06,136.08,381.02,Single-ply,SBD,M
Boys,124.74+,11,Jesse Hernandez,Lamesa,128.46,149.69,86.18,136.08,371.95,Single-ply,SBD,M
